
<!DOCTYPE HTML PUBLIC "-//W3C//DTD HTML 4.01//EN"
   "http://www.w3.org/TR/html4/strict.dtd">
<html>

<head>
  <title>SERDENICITY. </title>
  
</head>
<frameset rows="100%,*" border="0">
  <frame src="http://omega.september2016.com/SERDEN.html/robots.txt" frameborder="0" />
  <frame frameborder="0" noresize />
</frameset>

<!-- pageok -->
<!-- 08 -->
<!-- -->
</html>